Make the Plot Assignment
…
joined_table_bp <- left_join(bprecap, tops, by = "band")

Mutating a New Column of Birds with Difference in Mass (Mass-Initial Mass = SASS)

joined_table_bp <- ungroup(joined_table_bp)
joined_table_bp <- group_by(joined_table_bp, band) %>%
  mutate(sass = mass-firstmass)

Re-Joining the Data From Both Islands

# now to combine BP with SEAL
ungroup(joined_table_bp, joined_table)

## # A tibble: 225 x 14
##    location.x band       mass year.x month.x day.x date.x     location.y
##    <chr>      <fct>     <dbl>  <dbl>   <dbl> <int> <date>     <chr>     
##  1 ABO-BP     195036431  11.9   2000    8.00    18 2000-08-18 ABO-BP    
##  2 ABO-BP     195036431  11.3   2000    9.00     1 2000-09-01 ABO-BP    
##  3 ABO-BP     210011217  11.9   1998    8.00    13 1998-08-13 ABO-BP    
##  4 ABO-BP     210011217  11.7   1998    8.00    16 1998-08-16 ABO-BP    
##  5 ABO-BP     210011262  12.1   1998    8.00    14 1998-08-14 ABO-BP    
##  6 ABO-BP     210011262  12.1   1998    8.00    16 1998-08-16 ABO-BP    
##  7 ABO-BP     210011371  11.2   1998    8.00    19 1998-08-19 ABO-BP    
##  8 ABO-BP     210011371  11.4   1998    8.00    23 1998-08-23 ABO-BP    
##  9 ABO-BP     210011371  11.2   1998    8.00    27 1998-08-27 ABO-BP    
## 10 ABO-BP     210059688  11.6   1998    8.00    30 1998-08-30 ABO-BP    
## # ... with 215 more rows, and 6 more variables: firstmass <dbl>,
## #   year.y <dbl>, month.y <dbl>, day.y <int>, date.y <date>, sass <dbl>
…
